{
  "symbol": [
    "ACB",
    "BID",
    "FPT",
    "GAS",
    "HPG",
    "MBB",
    "SSI",
    "VCB",
    "VIB",
    "VIC"
  ],
  "name": [
    "Ng\u00e2n h\u00e0ng Th\u01b0\u01a1ng m\u1ea1i C\u1ed5 ph\u1ea7n \u00c1 Ch\u00e2u",
    "Ng\u00e2n h\u00e0ng Th\u01b0\u01a1ng m\u1ea1i c\u1ed5 ph\u1ea7n \u0110\u1ea7u t\u01b0 v\u00e0 Ph\u00e1t tri\u1ec3n Vi\u1ec7t Nam",
    "C\u00f4ng ty C\u1ed5 ph\u1ea7n FPT (HOSE)",
    "T\u1ed5ng C\u00f4ng ty Kh\u00ed Vi\u1ec7t Nam-CTCP (HOSE)",
    "C\u00f4ng ty c\u1ed5 ph\u1ea7n T\u1eadp \u0111o\u00e0n H\u00f2a Ph\u00e1t (HOSE)",
    "Ng\u00e2n h\u00e0ng Th\u01b0\u01a1ng m\u1ea1i c\u1ed5 ph\u1ea7n Qu\u00e2n \u0111\u1ed9i",
    "C\u00f4ng ty c\u1ed5 ph\u1ea7n Ch\u1ee9ng kho\u00e1n SSI (HOSE)",
    "Ng\u00e2n h\u00e0ng Th\u01b0\u01a1ng m\u1ea1i c\u1ed5 ph\u1ea7n Ngo\u1ea1i th\u01b0\u01a1ng Vi\u1ec7t Nam",
    "Ng\u00e2n h\u00e0ng Th\u01b0\u01a1ng m\u1ea1i c\u1ed5 ph\u1ea7n Qu\u1ed1c t\u1ebf Vi\u1ec7t Nam",
    "T\u1eadp \u0111o\u00e0n Vingroup - C\u00f4ng ty C\u1ed5 ph\u1ea7n (HOSE)"
  ]
}
